{
    "buttons": [
        "formatting",
        "bold",
        "italic",
        "unorderedlist",
        "orderedlist",
        "link",
        "file",
        "horizontalrule"
    ],
    "plugins": [
        "fullscreen"
    ],
    "linkNewTab": true,
    "toolbarFixed": true
}